{
  "required": true,
  "package": "com.mushroom.midnight.common.mixin",
  "compatibilityLevel": "JAVA_8",
  "refmap": "midnight.refmap.json",
  "mixins": [
    "BiomeColorsMixin",
    "ClientRecipeBookMixin",
    "EntityMixin",
    "LightTextureMixin",
    "LivingRendererMixin",
    "MobEntityMixin",
    "SoundSourceMixin"
  ],
  "minVersion": "0.8.2"
}
